…
library(tidyverse)
library(magrittr)
library(RCurl)

library(leaflet)

Загрузим данные по пожарам в Новосибирске1 за последние несколько лет.

url <- getURL("https://raw.githubusercontent.com/materov/blog_data/main/fire_NSK.csv")
fire <- read.csv(text = url)
fire %<>% as_tibble()

fire

## # A tibble: 6,379 x 13
##        X NOMER_ZVK DATE_ZVK ADDRES RIDE_TYPE OBJECT_CATEGORIE geo_lon geo_lat
##    <int>     <int> <fct>    <fct>  <fct>     <fct>              <dbl>   <dbl>
##  1     1   1600038 2016-01… ул. М… Тушение … Транспортные ср…    82.9    55.1
##  2     2   1600071 2016-01… ул. Ш… Тушение … Многоквартирный…    83.1    54.9
##  3     3   1600255 2016-01… ул. К… Тушение … Многоквартирный…    83.0    55.0
##  4     4   1600284 2016-01… ул. П… Тушение … Транспортные ср…    83.1    55.0
##  5     5   1600287 2016-01… ул. Н… Тушение … Многоквартирный…    83.0    55.1
##  6     6   1600319 2016-01… ул. Ф… Тушение … Здания производ…    82.9    55.0
##  7     7   1600410 2016-01… ул. В… Тушение … Одноквартирный …    83.0    55.0
##  8     8   1600412 2016-01… мрн. … Тушение … Многоквартирный…    82.9    55.0
##  9     9   1600435 2016-01… ул. Ш… Тушение … Прочие обьекты …    82.9    55.0
## 10    10   1600436 2016-01… ул. С… Тушение … Транспортные ср…    82.9    55.0
## # … with 6,369 more rows, and 5 more variables: PRIB_TIME <int>,
## #   LOC_TIME <int>, LPP_TIME <int>, SQUARE_LOC <dbl>, PERSONNEL <dbl>

Основные интересующие нас переменные – широта и долгота: geo_lat и geo_lon.

fire_geo <-
fire %>% 
  select(geo_lat, geo_lon) %>% 
  purrr::set_names("lat", "long") 

fire_geo

## # A tibble: 6,379 x 2
##      lat  long
##    <dbl> <dbl>
##  1  55.1  82.9
##  2  54.9  83.1
##  3  55.0  83.0
##  4  55.0  83.1
##  5  55.1  83.0
##  6  55.0  82.9
##  7  55.0  83.0
##  8  55.0  82.9
##  9  55.0  82.9
## 10  55.0  82.9
## # … with 6,369 more rows
…
