…
<data.frame> – таблица данных для построения диаграммы,

<type_of_chart> представляет собой строку для указания типа диаграммы; это значение может быть: линия, сплайн, область, тепловая карта, и т.д,

<aesthetics> – используемое отображение для отрисовки данных,

... – другие параметры настройки диаграммы.

Географические карты в highcharter

Покажем, как можно визуализировать простейшие геоданные в highcharter. В качестве примера визуализируем на карте Российской Федерации города с населением свыше 300 000 чел. Актуальные данные по городам РФ можно получить с сайта ИНИД (на момент написания статьи на 12.03.2021). После простейшей предобработки таблица с данными выглядит следующим образом.

cities_300 

## # A tibble: 65 × 4
##    name             population   lon   lat
##    <chr>                 <dbl> <dbl> <dbl>
##  1 Калининград          467289  20.4  54.7
##  2 Пенза                522317  45    53.2
##  3 Владимир             356168  40.4  56.1
##  4 Иркутск              623479 104.   52.3
##  5 Оренбург             561686  55.1  51.8
##  6 Архангельск          348343  40.5  64.5
##  7 Саранск              318578  45.2  54.2
##  8 Набережные Челны     524444  52.4  55.7
##  9 Ярославль            603961  39.9  57.6
## 10 Чебоксары            492331  47.2  56.1
## # … with 55 more rows
…
Другой пример построения карт показывает, как можно визуализировать глобальную карту. В качестве примера используем Global Climate Change Data (источник: Berkeley Earth).

AverageTemperature

## # A tibble: 169 × 3
##    country              aveT iso3 
##    <chr>               <dbl> <chr>
##  1 Afghanistan            15 AFG  
##  2 Albania                14 ALB  
##  3 Algeria                24 DZA  
##  4 Andorra                12 ADO  
##  5 Antigua and Barbuda    27 ATG  
##  6 Argentina              15 ARG  
##  7 Armenia                10 ARM  
##  8 Australia              22 AUS  
##  9 Austria                 7 AUT  
## 10 Azerbaijan             13 AZE  
## # … with 159 more rows
…
Вложенные диаграммы

Библиотека highcharter позволяет формировать диаграммы, в компактной форме представляющие сложную информацию при помощи вложений. В качестве примера мы рассмотрим ежедневное количество пожаров в Российской Федерации за апрель 2020 года по различным категориям.

fire_hc

## # A tibble: 126 × 3
##    dt         type_name            count
##    <chr>      <chr>                <int>
##  1 01.04.2020 Контролируемый пал     517
##  2 01.04.2020 Лесной пожар            48
##  3 01.04.2020 Неконтролируемый пал   150
##  4 01.04.2020 Природный пожар         83
##  5 02.04.2020 Контролируемый пал     397
##  6 02.04.2020 Лесной пожар            75
##  7 02.04.2020 Неконтролируемый пал   365
##  8 02.04.2020 Природный пожар        124
##  9 03.04.2020 Контролируемый пал     378
## 10 03.04.2020 Лесной пожар            57
## # … with 116 more rows
…
highcharter имеет богатые возможности для стилизации отображения диаграмм. Например, можно кастомизировать

всплывающие подсказки (Tooltip options),

темы (Themes).

Пример применения различных тем

Загрузим данные по погоде за последние несколько лет в г. Красноярске, которые были полученны с Climate Data Online Search NOAA.

Нас будут интересовать средние температуры воздуха в каждом месяце с 2013 года.

weather_month

## # A tibble: 111 × 3
##     YEAR MONTH   TAVE
##    <dbl> <ord>  <dbl>
##  1  2013 янв   -17.1 
##  2  2013 фев   -15.3 
##  3  2013 мар    -7.59
##  4  2013 апр     3.24
##  5  2013 май     7.44
##  6  2013 июн    14.9 
##  7  2013 июл    17.1 
##  8  2013 авг    16.3 
##  9  2013 сен     7.36
## 10  2013 окт     2.71
## # … with 101 more rows
…
3D-диаграммы

Эффектно выглядят 3D-диаграммы. Покажем, как выглядит диаграмма средних температур воздуха в г. Красноярске за 3 года.

# данные
weather_hc <-
weather_df %>% 
  filter(YEAR %in% c("2018","2019", "2020")) %>% 
  group_by(YEAR, MONTH) %>% 
  summarise(ave = round(mean(TAVE, na.rm = T), 1)) %>% 
  ungroup()

weather_hc

## # A tibble: 36 × 3
##     YEAR MONTH   ave
##    <dbl> <ord> <dbl>
##  1  2018 Янв   -21.2
##  2  2018 Фев   -15  
##  3  2018 Мар    -6.3
##  4  2018 Апр     3.3
##  5  2018 Май     7.4
##  6  2018 Июн    19.1
##  7  2018 Июл    16.7
##  8  2018 Авг    17.2
##  9  2018 Сен    10.1
## 10  2018 Окт     5.3
## # … with 26 more rows
…
