…
library(tidymodels)
library(modeltime)
library(timetk)

Рассмотрим фондовые данные по гидрологии в Российской Федерации :ru: за 2008-2015 года1. Загрузим данные с GitHub:

url <- "https://raw.githubusercontent.com/materov/blog_data/main/df_hydro.csv"

df_hydro <- readr::read_csv(url)

Исходные данные содержат 615 849 записей и имеют две переменных: date и level, отвечающих за дату наблюдения и уровень воды в метрах над нулем графика поста.

df_hydro

## # A tibble: 615,849 x 2
##    date                level
##    <dttm>              <dbl>
##  1 2013-10-11 00:00:00   626
##  2 2013-11-11 00:00:00   642
##  3 2013-12-11 00:00:00   615
##  4 2013-01-12 00:00:00   549
##  5 2013-02-12 00:00:00   543
##  6 2013-03-12 00:00:00   542
##  7 2013-04-12 00:00:00   541
##  8 2013-05-12 00:00:00   705
##  9 2013-06-12 00:00:00   916
## 10 2013-07-12 00:00:00   653
## # … with 615,839 more rows
…
Модель MARS

# Модель 6: MARS ----
# Пример "рецепта" предобработки
recipe_spec <- recipe(value ~ date, data = training(splits)) %>%
  step_date(date, features = "month", ordinal = FALSE) %>%
  step_mutate(date_num = as.numeric(date)) %>%
  step_normalize(date_num) %>%
  step_rm(date)

# вид "рецепта"
recipe_spec %>% prep() %>% juice()

## # A tibble: 2,629 x 3
##    value date_month date_num
##    <dbl> <fct>         <dbl>
##  1   973 янв           -1.73
##  2   971 янв           -1.73
##  3   969 янв           -1.73
##  4   968 янв           -1.73
##  5   969 янв           -1.73
##  6   968 янв           -1.72
##  7   966 янв           -1.72
##  8   965 янв           -1.72
##  9   963 янв           -1.72
## 10   962 янв           -1.72
## # … with 2,619 more rows
…
Модель glmnet

# Модель 8: glmnet ----
# recipe
recipe_spec <- recipe(value ~ date, training(splits)) %>%
  step_timeseries_signature(date) %>%
  step_rm(contains("am.pm"), contains("hour"), contains("minute"),
          contains("second"), contains("xts")) %>%
  step_fourier(date, period = 365, K = 5) %>%
  step_dummy(all_nominal())

# просмотр "рецепта"
recipe_spec %>% prep() %>% juice()

## # A tibble: 2,629 x 47
##    date       value date_index.num date_year date_year.iso date_half
##    <date>     <dbl>          <dbl>     <int>         <int>     <int>
##  1 2008-01-01   973     1199145600      2008          2008         1
##  2 2008-01-02   971     1199232000      2008          2008         1
##  3 2008-01-03   969     1199318400      2008          2008         1
##  4 2008-01-04   968     1199404800      2008          2008         1
##  5 2008-01-05   969     1199491200      2008          2008         1
##  6 2008-01-06   968     1199577600      2008          2008         1
##  7 2008-01-07   966     1199664000      2008          2008         1
##  8 2008-01-08   965     1199750400      2008          2008         1
##  9 2008-01-09   963     1199836800      2008          2008         1
## 10 2008-01-10   962     1199923200      2008          2008         1
## # … with 2,619 more rows, and 41 more variables: date_quarter <int>,
## #   date_month <int>, date_day <int>, date_wday <int>, date_mday <int>,
## #   date_qday <int>, date_yday <int>, date_mweek <int>, date_week <int>,
## #   date_week.iso <int>, date_week2 <int>, date_week3 <int>, date_week4 <int>,
## #   date_mday7 <int>, date_sin365_K1 <dbl>, date_cos365_K1 <dbl>,
## #   date_sin365_K2 <dbl>, date_cos365_K2 <dbl>, date_sin365_K3 <dbl>,
## #   date_cos365_K3 <dbl>, date_sin365_K4 <dbl>, date_cos365_K4 <dbl>,
## #   date_sin365_K5 <dbl>, date_cos365_K5 <dbl>, date_month.lbl_01 <dbl>,
## #   date_month.lbl_02 <dbl>, date_month.lbl_03 <dbl>, date_month.lbl_04 <dbl>,
…
