…
Исходные данные

Подключим необходимые библиотеки.

library(tidyverse)
library(magrittr)
library(maps)
library(gganimate)
library(gt)

Загрузим данные и рассмотрим их структуру.

df

## # A tibble: 646,828 x 6
##        id dt           lon   lat type_id type_name                   
##     <dbl> <date>     <dbl> <dbl>   <dbl> <chr>                       
##  1 573822 2012-01-01  132.  43.4       3 Горение мусора              
##  2 573819 2012-01-01  132.  43.4       3 Горение мусора              
##  3 573818 2012-01-01  134.  42.9       4 Сжигание порубочных остатков
##  4 573823 2012-01-02  131.  42.9       4 Сжигание порубочных остатков
##  5 573824 2012-01-02  132.  43.1      11 Не подтверждено             
##  6 576488 2012-03-13  105.  50.5      11 Не подтверждено             
##  7 576478 2012-03-13  132.  47.9       9 Природный пожар             
##  8 576497 2012-03-13  132.  47.9       9 Природный пожар             
##  9 576479 2012-03-13  132.  47.9       9 Природный пожар             
## 10 576487 2012-03-13  104.  50.4       2 Техногенный пожар           
## # … with 646,818 more rows
…
