…
<script src="{{< blogdown/postref >}}index.ru_files/header-attrs/header-attrs.js">
<link href="{{< blogdown/postref >}}index.ru_files/applause-button/applause-button.css" rel="stylesheet" />
<script src="{{< blogdown/postref >}}index.ru_files/applause-button/applause-button.js">

Исходные данные

Рассмотрим данные по пожарам в Красноярском крае1. Основными переменными являются: дата пожара (переменная f5), район края (переменная f2) и вид населенного пункта (переменная f6). Каждая строка данных соответствует одному событию – пожару.

pozh_df

## # A tibble: 159,453 x 3
##    f2                  f5         f6                              
##    <fct>               <date>     <fct>                           
##  1 Канский район       2014-02-12 Сельский населенный пункт       
##  2 Дзержинский район   2014-02-24 Сельский населенный пункт       
##  3 Лесосибирск         2014-03-07 Город                           
##  4 Лесосибирск         2014-03-10 Город                           
##  5 Емельяновский район 2014-03-18 Сельский населенный пункт       
##  6 Курагинский район   2018-05-14 Населенный пункт городского типа
##  7 Партизанский район  2014-03-10 Сельский населенный пункт       
##  8 Назаровский район   2014-03-15 Сельский населенный пункт       
##  9 Лесосибирск         2014-03-10 Город                           
## 10 Назарово            2014-03-18 Город                           
## # … with 159,443 more rows

Диапазон дат наших данных охватывает период с 2010 по 2020 года.

range(pozh_df$f5)

## [1] "2010-01-01" "2020-12-31"

Используя функцию count(), выделим районы с наибольшим количеством пожаров.

count(pozh_df, f2, sort = T)

## # A tibble: 64 x 2
##    f2                                  n
##    <fct>                           <int>
##  1 Канский район                   11055
##  2 Красноярск (Советский район)    10890
##  3 Емельяновский район              9674
##  4 Ачинск                           8282
##  5 Березовский район                7979
##  6 Красноярск (Октябрьский район)   7646
##  7 Красноярск (Ленинский район)     6976
##  8 Красноярск (Свердловский район)  6438
##  9 Шарыповский район                5944
## 10 Норильск                         5225
## # … with 54 more rows
…
Составим таблицу количества пожаров сразу по двум категориям: по районам края и видам населенных пунктов.

count(pozh_df, f2, f6, sort = T)

## # A tibble: 244 x 3
##    f2                              f6                            n
##    <fct>                           <fct>                     <int>
##  1 Красноярск (Советский район)    Город                     10890
##  2 Канский район                   Город                      9615
##  3 Ачинск                          Город                      7676
##  4 Красноярск (Октябрьский район)  Город                      7644
##  5 Красноярск (Ленинский район)    Город                      6976
##  6 Красноярск (Свердловский район) Город                      6438
##  7 Емельяновский район             Сельский населенный пункт  5756
##  8 Норильск                        Город                      5217
##  9 Красноярск (Кировский район)    Город                      4775
## 10 Красноярск (Центральный район)  Город                      3825
## # … with 234 more rows
…
require(tsibble)

# key = районы края
pozh_ts <- pozh_df %>% 
  group_by(f2, f5) %>% 
  summarise(y = n()) %>% 
  ungroup() %>%
  as_tsibble(., key = f2, index = f5)

Отметим, что пропущенные данные имеются во всех районах края, пропущено (либо в этот день не наблюдалось пожаров) более 170 000 значений!

# пропущенные значения есть во всех районах!
has_gaps(pozh_ts) 

## # A tibble: 64 x 2
##    f2                     .gaps
##    <fct>                  <lgl>
##  1 Абанский район         TRUE 
##  2 Ачинск                 TRUE 
##  3 Ачинский район         TRUE 
##  4 Байкит                 TRUE 
##  5 Балахтинский район     TRUE 
##  6 Березовский район      TRUE 
##  7 Бирилюсский район      TRUE 
##  8 Боготольский район     TRUE 
##  9 Богучанский район      TRUE 
## 10 Большемуртинский район TRUE 
## # … with 54 more rows

# пропущено более 170 000 значений
scan_gaps(pozh_ts)

## # A tsibble: 174,800 x 2 [1D]
## # Key:       f2 [64]
##    f2             f5        
##    <fct>          <date>    
##  1 Абанский район 2010-01-02
##  2 Абанский район 2010-01-04
##  3 Абанский район 2010-01-07
##  4 Абанский район 2010-01-08
##  5 Абанский район 2010-01-09
##  6 Абанский район 2010-01-12
##  7 Абанский район 2010-01-13
##  8 Абанский район 2010-01-14
##  9 Абанский район 2010-01-16
## 10 Абанский район 2010-01-17
## # … with 174,790 more rows

Самые большие пропуски данных по длительности наблюдались в Бородино и Сосновоборске.

count_gaps(pozh_ts) %>% arrange(desc(.n))

## # A tibble: 36,439 x 4
##    f2             .from      .to           .n
##    <fct>          <date>     <date>     <int>
##  1 Бородино       2010-10-14 2019-01-22  3023
##  2 Сосновоборск   2010-12-28 2018-12-31  2926
##  3 Ачинский район 2010-12-30 2013-01-02   735
##  4 Лесосибирск    2011-01-01 2012-12-31   731
##  5 Минусинск      2011-01-01 2012-12-31   731
##  6 Назарово       2011-01-01 2012-12-31   731
##  7 Диксон         2012-09-13 2014-07-05   661
##  8 Диксон         2014-07-07 2016-04-25   659
##  9 Диксон         2016-04-27 2017-11-18   571
## 10 Диксон         2011-09-09 2012-09-11   369
## # … with 36,429 more rows
…
