…
Отметим, что наши данные не охватывают полный объем значений по количеству пожаров, а только те данные, где удалось получить географические координаты по адресам пожаров и служат исключительно для иллюстрации рассматриваемых методов. Тем не менее, данные хорошо передают общую тенденцию и описываемые подходы обработки данных и их визуализации.

{{% /callout %}}

url <- getURL("https://raw.githubusercontent.com/materov/blog_data/main/fire_NSK.csv")
fire <- read.csv(text = url)

fire %<>% na.omit()
fire %<>% as_tibble()
fire$DATE_ZVK %<>% as.Date()

fire

## # A tibble: 5,134 x 13
##        X NOMER_ZVK DATE_ZVK   ADDRES  RIDE_TYPE OBJECT_CATEGORIE geo_lon geo_lat
##    <int>     <int> <date>     <fct>   <fct>     <fct>              <dbl>   <dbl>
##  1     1   1600038 2016-01-01 ул. Мя… Тушение … Транспортные ср…    82.9    55.1
##  2     2   1600071 2016-01-01 ул. Ша… Тушение … Многоквартирный…    83.1    54.9
##  3     3   1600255 2016-01-02 ул. Ку… Тушение … Многоквартирный…    83.0    55.0
##  4     5   1600287 2016-01-02 ул. Но… Тушение … Многоквартирный…    83.0    55.1
##  5     6   1600319 2016-01-03 ул. Фа… Тушение … Здания производ…    82.9    55.0
##  6     7   1600410 2016-01-03 ул. Вы… Тушение … Одноквартирный …    83.0    55.0
##  7     8   1600412 2016-01-03 мрн. Г… Тушение … Многоквартирный…    82.9    55.0
##  8     9   1600435 2016-01-04 ул. Шк… Тушение … Прочие обьекты …    82.9    55.0
##  9    10   1600436 2016-01-04 ул. Си… Тушение … Транспортные ср…    82.9    55.0
## 10    11   1600440 2016-01-04 ул. Вы… Тушение … Транспортные ср…    83.0    55.0
## # … with 5,124 more rows, and 5 more variables: PRIB_TIME <int>,
## #   LOC_TIME <int>, LPP_TIME <int>, SQUARE_LOC <dbl>, PERSONNEL <dbl>
…
географические координаты;

время прибытия;

площадь пожара.

fire <-
fire %>% 
  select(DATE_ZVK, 
         geo_lon, geo_lat,
         PRIB_TIME, SQUARE_LOC)

fire

## # A tibble: 5,134 x 5
##    DATE_ZVK   geo_lon geo_lat PRIB_TIME SQUARE_LOC
##    <date>       <dbl>   <dbl>     <int>      <dbl>
##  1 2016-01-01    82.9    55.1         6        130
##  2 2016-01-01    83.1    54.9         4          3
##  3 2016-01-02    83.0    55.0        10          0
##  4 2016-01-02    83.0    55.1         5         15
##  5 2016-01-03    82.9    55.0         7          5
##  6 2016-01-03    83.0    55.0         8         81
##  7 2016-01-03    82.9    55.0         8          0
##  8 2016-01-04    82.9    55.0         9         20
##  9 2016-01-04    82.9    55.0         7          6
## 10 2016-01-04    83.0    55.0        10          2
## # … with 5,124 more rows
…
