…
library(RCurl)

GitHubURL <- "https://raw.githubusercontent.com/materov/blog_data/main/data_fire.csv"
fire <- readr::read_csv(GitHubURL)

fire <-
fire %>% 
  mutate_if(is.character, factor) %>%
  mutate_if(is.numeric, as.integer)

Строки таблицы данных соответствуют одному наблюдению, а переменные-столбцы – поля карточки учета пожаров.

fire

## # A tibble: 12,477 x 45
##       X1 F1     F2       F3 F4    F5         F6    F7    F8    F9    F10   F11  
##    <int> <fct>  <fct> <int> <fct> <date>     <fct> <fct> <fct> <fct> <fct> <fct>
##  1     1 Красн… Крас…  1869 осно… 2019-07-12 Город ГПС:… Муни… Унит… орга… Жило…
##  2     2 Красн… Крас…  1870 осно… 2019-06-29 Город ГПС:… Част… форм… орга… Жило…
##  3     3 Красн… Крас…  1871 осно… 2019-07-12 Город ГПС:… Муни… Унит… орга… Проч…
##  4     4 Красн… Крас…  1872 осно… 2019-07-12 Город ГПС:… Муни… Унит… орга… Проч…
##  5     5 Красн… Крас…  1873 осно… 2019-07-13 Город ГПС:… Муни… Унит… орга… Проч…
##  6     6 Красн… Крас…  1874 осно… 2019-07-13 Город ГПС:… Муни… Унит… орга… Проч…
##  7     7 Красн… Крас…  1875 осно… 2019-07-13 Город ГПС:… Муни… Унит… орга… Проч…
##  8     8 Красн… Крас…  1876 осно… 2019-07-13 Город ГПС:… Муни… Унит… орга… Проч…
##  9     9 Красн… Крас…  1877 осно… 2019-07-13 Город ГПС:… Част… форм… орга… Вид …
## 10    10 Красн… Крас…  1878 осно… 2019-07-13 Город ГПС:… Муни… Унит… орга… Проч…
## # … with 12,467 more rows, and 33 more variables: F12 <fct>, F13 <fct>,
## #   F14 <int>, F15 <int>, F16 <fct>, F17 <fct>, F17A <fct>, F18 <fct>,
## #   F19 <fct>, F20 <fct>, F21 <fct>, F22 <fct>, F23 <int>, F27 <int>,
## #   F28 <int>, F29 <int>, F30 <int>, F31 <int>, F32 <int>, F56 <int>,
## #   F75 <fct>, F112 <int>, F113 <int>, F114 <int>, F115 <int>, F116 <int>,
## #   F78 <fct>, F79 <fct>, F80 <fct>, F81 <fct>, F82 <fct>, F148 <fct>,
## #   F149 <fct>
…
